<?xml version="1.0" encoding="UTF-8"?>
<!DOCTYPE svg PUBLIC "-//W3C//DTD SVG 1.1//EN" "http://www.w3.org/Graphics/SVG/1.1/DTD/svg11.dtd">
<!-- Creator: CorelDRAW 2018 (64 Bit) -->
<svg xmlns="http://www.w3.org/2000/svg" xml:space="preserve" width="7.5376mm" height="7.0556mm" version="1.1" style="shape-rendering:geometricPrecision; text-rendering:geometricPrecision; image-rendering:optimizeQuality; fill-rule:evenodd; clip-rule:evenodd"
viewBox="0 0 0.83 0.78"
 xmlns:xlink="http://www.w3.org/1999/xlink">
 <defs>
  <style type="text/css">
   <![CDATA[
    .fil0 {fill:#2F6CB1;fill-rule:nonzero}
   ]]>
  </style>
 </defs>
 <g id="Camada_x0020_1">
  <metadata id="CorelCorpID_0Corel-Layer"/>
  <path class="fil0" d="M0.46 0c-0.13,0 -0.24,0.06 -0.3,0.16 0.01,0.01 0.03,0.02 0.04,0.04 0.05,-0.08 0.13,-0.13 0.23,-0.14l0.04 0.06 0.04 -0.06c0.14,0.02 0.26,0.13 0.28,0.28l-0.06 0.04 0.06 0.04c-0.01,0.1 -0.07,0.18 -0.15,0.23 0,0.01 0.01,0.02 0.01,0.04 0,0.01 -0,0.02 -0,0.02 0.12,-0.06 0.2,-0.19 0.2,-0.33 0,-0.2 -0.17,-0.37 -0.37,-0.37zm0.09 0.61c-0.09,-0.07 -0.11,-0.03 -0.15,0 -0.03,0.03 -0.1,-0.03 -0.16,-0.09 -0.06,-0.06 -0.12,-0.13 -0.09,-0.16 0.04,-0.04 0.07,-0.06 0,-0.15 -0.07,-0.09 -0.11,-0.02 -0.15,0.02 -0.04,0.04 -0,0.21 0.16,0.37 0.16,0.16 0.32,0.2 0.37,0.16 0.04,-0.04 0.1,-0.08 0.02,-0.15zm-0.26 -0.18c0,-0.08 0.09,-0.09 0.09,-0.12 0,-0.01 -0.01,-0.02 -0.02,-0.02 -0.02,0 -0.03,0.02 -0.03,0.02l-0.04 -0.03c0,0 0.02,-0.04 0.07,-0.04 0.03,0 0.07,0.02 0.07,0.06 0,0.06 -0.08,0.08 -0.08,0.1l0.09 0 0 0.04 -0.14 0c-0,-0.01 -0,-0.02 -0,-0.02zm0.17 -0.06l0.08 -0.13 0.06 0 0 0.11 0.02 0 0 0.04 -0.02 0 0 0.05 -0.05 0 0 -0.05 -0.09 0 0 -0.03zm0.09 -0.01l0 -0.05c0,-0.01 0,-0.02 0,-0.02l-0 0c0,0 -0,0.01 -0.01,0.02l-0.03 0.05 0 0 0.04 -0z"/>
 </g>
</svg>
