<?xml version="1.0" encoding="UTF-8"?>
<!DOCTYPE svg PUBLIC "-//W3C//DTD SVG 1.1//EN" "http://www.w3.org/Graphics/SVG/1.1/DTD/svg11.dtd">
<!-- Creator: CorelDRAW 2018 (64 Bit) -->
<svg xmlns="http://www.w3.org/2000/svg" xml:space="preserve" width="10.5833mm" height="6.1655mm" version="1.1" style="shape-rendering:geometricPrecision; text-rendering:geometricPrecision; image-rendering:optimizeQuality; fill-rule:evenodd; clip-rule:evenodd"
viewBox="0 0 0.75 0.44"
 xmlns:xlink="http://www.w3.org/1999/xlink">
 <defs>
  <style type="text/css">
   <![CDATA[
    .fil0 {fill:white;fill-rule:nonzero}
   ]]>
  </style>
 </defs>
 <g id="Camada_x0020_1">
  <metadata id="CorelCorpID_0Corel-Layer"/>
  <g id="_1792803502576">
   <path class="fil0" d="M0.36 0.26c0,0 0,0 0.01,0l0.24 0.13 0.11 -0.37 -0.66 0.09 0.18 0.08c0,0 0.01,0 0.01,0.01l0.06 0.18 0.04 -0.11c0,-0 0,-0.01 0.01,-0.01 0,-0 0,-0 0,-0zm-0.05 0.17c0,0 -0,0 -0,0 -0.01,-0 -0.01,-0 -0.01,-0.01l-0.07 -0.21 -0.22 -0.1c-0.01,-0 -0.01,-0.01 -0.01,-0.01 0,-0.01 0.01,-0.01 0.01,-0.01l0.72 -0.1c0,-0 0.01,0 0.01,0 0,0 0,0.01 0,0.01l-0.12 0.4c-0,0 -0,0.01 -0.01,0.01 -0,0 -0.01,0 -0.01,-0l-0.24 -0.13 -0.05 0.13c-0,0.01 -0.01,0.01 -0.01,0.01z"/>
   <polygon class="fil0" points="0.31,0.43 0.3,0.41 0.43,0.31 0.45,0.33 "/>
   <path class="fil0" d="M0.37 0.28l-0.01 -0.02 0.29 -0.2 -0.4 0.16 -0.01 -0.02 0.5 -0.2c0.01,-0 0.01,0 0.02,0.01 0,0.01 0,0.01 -0,0.02l-0.38 0.26z"/>
  </g>
 </g>
</svg>
