<?xml version="1.0" encoding="UTF-8"?>
<!DOCTYPE svg PUBLIC "-//W3C//DTD SVG 1.1//EN" "http://www.w3.org/Graphics/SVG/1.1/DTD/svg11.dtd">
<!-- Creator: CorelDRAW 2018 (64 Bit) -->
<svg xmlns="http://www.w3.org/2000/svg" xml:space="preserve" width="5.4925mm" height="5.6444mm" version="1.1" style="shape-rendering:geometricPrecision; text-rendering:geometricPrecision; image-rendering:optimizeQuality; fill-rule:evenodd; clip-rule:evenodd"
viewBox="0 0 7.32 7.52"
 xmlns:xlink="http://www.w3.org/1999/xlink">
 <defs>
  <style type="text/css">
   <![CDATA[
    .fil0 {fill:#2F6CB1;fill-rule:nonzero}
   ]]>
  </style>
 </defs>
 <g id="Camada_x0020_1">
  <metadata id="CorelCorpID_0Corel-Layer"/>
  <path class="fil0" d="M7.32 2.15l0 3.22c0,0.59 -0.24,1.13 -0.63,1.52 -0.39,0.39 -0.93,0.63 -1.52,0.63l-3.02 0c-0.59,0 -1.13,-0.24 -1.52,-0.63 -0.39,-0.39 -0.63,-0.93 -0.63,-1.52l0 -3.22c0,-0.59 0.24,-1.13 0.63,-1.52 0.39,-0.39 0.93,-0.63 1.52,-0.63l3.02 0c0.59,0 1.13,0.24 1.52,0.63 0.39,0.39 0.63,0.93 0.63,1.52zm-1.15 -0.45c0,0.26 -0.21,0.47 -0.47,0.47 -0.26,0 -0.47,-0.21 -0.47,-0.47 0,-0.26 0.21,-0.47 0.47,-0.47 0.26,0 0.47,0.21 0.47,0.47zm-0.52 2.06c-0.01,0.55 -0.24,1.05 -0.6,1.41 -0.36,0.36 -0.85,0.58 -1.4,0.58 -0.55,0 -1.05,-0.22 -1.41,-0.59 -0.36,-0.36 -0.59,-0.86 -0.59,-1.41 0,-0.01 0,-0.01 0,-0.06 0.02,-0.53 0.24,-1.01 0.58,-1.36 0.35,-0.35 0.83,-0.58 1.36,-0.58 0.01,0 0.01,0 0.06,0 0.63,0.02 1.12,0.23 1.45,0.56 0.37,0.37 0.55,0.87 0.53,1.44zm-1.07 0.93c0.24,-0.24 0.39,-0.58 0.4,-0.95 0.01,-0.38 -0.11,-0.72 -0.34,-0.95 -0.22,-0.22 -0.55,-0.36 -1,-0.37 -0.01,-0 0,0 -0.04,0 -0.35,0 -0.66,0.14 -0.89,0.38 -0.23,0.23 -0.38,0.56 -0.39,0.91 -0,0.01 0,-0 0,0.04 0,0.37 0.15,0.7 0.39,0.94 0.24,0.24 0.57,0.39 0.94,0.39 0.36,0 0.69,-0.15 0.92,-0.38zm0.59 -4.14l-3.02 0c-0.44,0 -0.84,0.18 -1.13,0.47 -0.29,0.29 -0.47,0.69 -0.47,1.13l0 3.22c0,0.44 0.18,0.84 0.47,1.13 0.29,0.29 0.69,0.47 1.13,0.47l3.02 0c0.44,0 0.84,-0.18 1.13,-0.47 0.29,-0.29 0.47,-0.69 0.47,-1.13l0 -3.22c0,-0.44 -0.18,-0.84 -0.47,-1.13 -0.29,-0.29 -0.69,-0.47 -1.13,-0.47z"/>
 </g>
</svg>
