<?xml version="1.0" encoding="UTF-8"?>
<!DOCTYPE svg PUBLIC "-//W3C//DTD SVG 1.1//EN" "http://www.w3.org/Graphics/SVG/1.1/DTD/svg11.dtd">
<!-- Creator: CorelDRAW 2018 (64 Bit) -->
<svg xmlns="http://www.w3.org/2000/svg" xml:space="preserve" width="31.75mm" height="31.75mm" version="1.1" style="shape-rendering:geometricPrecision; text-rendering:geometricPrecision; image-rendering:optimizeQuality; fill-rule:evenodd; clip-rule:evenodd"
viewBox="0 0 7.11 7.11"
 xmlns:xlink="http://www.w3.org/1999/xlink">
 <defs>
  <style type="text/css">
   <![CDATA[
    .fil1 {fill:white}
    .fil0 {fill:url(#id0)}
   ]]>
  </style>
  <linearGradient id="id0" gradientUnits="userSpaceOnUse" x1="3.55" y1="-0.04" x2="3.55" y2="7.15">
   <stop offset="0" style="stop-opacity:1; stop-color:#68DAE0"/>
   <stop offset="1" style="stop-opacity:1; stop-color:#2071FF"/>
  </linearGradient>
 </defs>
 <g id="Camada_x0020_1">
  <metadata id="CorelCorpID_0Corel-Layer"/>
  <circle class="fil0" cx="3.55" cy="3.55" r="3.55"/>
  <path class="fil1" d="M4.4 5.28c0,-0.15 -0.01,-0.12 0.32,-0.12 0.02,0 0.02,0 0.04,0.01 0.04,-0.03 0.07,-0.06 0.11,-0.08 -0,-0.01 -0.01,-0.01 -0.02,-0.02 -0.08,-0.07 -0.24,-0.05 -0.38,-0.05 -0.11,0 -0.21,0.08 -0.21,0.18 0,0.08 -0.01,0.16 0.05,0.22 0.06,-0.02 0.12,-0.05 0.17,-0.08l-0.02 0c-0.04,0 -0.06,-0.02 -0.06,-0.06zm-1.26 0.25c-0.02,-0.18 -0.03,-0.37 -0.01,-0.55 0,-0.03 -0,-0.06 0,-0.09 0,-0.05 0.01,-0.05 0.01,-0.09 0.15,0.03 0.23,0.08 0.41,0.08 0.02,0 0.07,-0.01 0.11,-0.01 0.13,-0.01 0.21,-0.05 0.3,-0.07 0,0.04 0.01,0.03 0.01,0.07 0,0.03 -0,0.06 -0,0.09 0,0.06 0.01,0.06 0.01,0.17 0,0.13 -0.01,0.27 -0.02,0.4 0.05,-0.01 0.1,-0.02 0.14,-0.03 0.01,-0.07 0.01,-0.15 0.01,-0.23 0,-0.25 0,-0.32 -0.02,-0.57 -0,-0.04 -0.03,-0.27 -0.04,-0.3l0.44 0.12c0.07,0.03 0.12,0.06 0.18,0.09 0.12,0.07 0.25,0.21 0.33,0.36 0.03,-0.03 0.07,-0.07 0.1,-0.11 -0.01,-0.02 -0.02,-0.03 -0.03,-0.05 -0.05,-0.07 -0.15,-0.18 -0.22,-0.24 -0.05,-0.04 -0.11,-0.09 -0.18,-0.12 -0.37,-0.18 -0.63,-0.13 -0.66,-0.26 0.07,-0.04 0.25,-0.07 0.33,-0.12 0.23,-0.11 0.33,-0.29 0.33,-0.56 -0,-0.32 0.01,-0.14 0.06,-0.28 0.03,-0.08 0.02,-0.27 0.02,-0.38 0,-0.1 -0.04,-0.13 -0.07,-0.17 -0.05,-0.08 0.04,-0.28 -0.28,-0.7 -0.18,-0.23 -0.53,-0.4 -0.82,-0.4 -0.26,0 -0.36,0.02 -0.59,0.13 -0.3,0.15 -0.52,0.46 -0.58,0.79 -0.01,0.05 -0.01,0.08 -0.02,0.14 -0.01,0.08 -0.09,0.08 -0.09,0.22 0,0.19 -0.03,0.33 0.06,0.44 0.03,0.04 0.02,0.11 0.02,0.2 -0,0.26 0.09,0.47 0.32,0.57 0.06,0.02 0.1,0.04 0.16,0.06 0.05,0.02 0.13,0.04 0.17,0.06 -0.02,0.07 -0.09,0.08 -0.16,0.09 -0.38,0.1 -0.73,0.25 -0.92,0.57 0.03,0.04 0.06,0.07 0.09,0.1 0.02,-0.03 0.04,-0.07 0.07,-0.1 0.16,-0.21 0.28,-0.31 0.58,-0.39 0.06,-0.01 0.1,-0.02 0.15,-0.04 0.05,-0.01 0.11,-0.04 0.16,-0.04 -0.03,0.06 -0.06,0.51 -0.06,0.61 0,0.2 -0,0.32 0.01,0.49 0.05,0.01 0.09,0.02 0.14,0.03zm0.1 -1.6c0.16,0.08 0.47,0.08 0.63,0 0,0.25 -0.01,0.13 0.03,0.37 0.02,0.11 0.05,0.24 0.05,0.35 -0.04,0.01 -0.1,0.04 -0.18,0.06 -0.14,0.03 -0.29,0.03 -0.43,-0 -0.08,-0.02 -0.15,-0.05 -0.18,-0.06 0,-0.19 0.06,-0.38 0.08,-0.52 0.01,-0.06 0,-0.14 0,-0.2zm0.77 0.12l0 -0.18c0.11,0 0.18,-0.04 0.22,-0.12 0.18,0 0.13,0.01 0.3,-0.03 -0.05,0.1 -0.09,0.16 -0.2,0.21l-0.31 0.11zm0.04 -0.32c-0.18,0 -0.24,0.02 -0.24,-0.07 0,-0.06 0.14,-0.04 0.22,-0.04 0.1,0 0.08,0.12 0.02,0.12zm-1.5 -0.13l0 -0.23c0.34,0 0.1,-0.01 0.32,0.28 0.04,0.06 0.15,0.19 0.22,0.21l0 0.2c-0.08,-0.02 -0.3,-0.09 -0.36,-0.13 -0.1,-0.06 -0.18,-0.19 -0.18,-0.31zm1.69 0.01c0.03,-0.04 0.07,-0.13 0.09,-0.18 0.02,-0.08 -0.02,-0.06 0.21,-0.06 0,0.09 0.02,0.18 -0.09,0.23 -0.05,0.02 -0.14,0.01 -0.2,0.01zm-1.39 -0.42l0 -0.42c0.31,0 0.67,-0.03 0.88,-0.24l0.16 -0.18c0.04,0.08 0.07,0.15 0.13,0.22 0.04,0.04 0.14,0.14 0.2,0.16 0,0.17 0.01,0.46 -0.02,0.61 -0.02,0.08 -0.05,0.12 -0.06,0.16 -0.04,-0.01 -0.04,-0.03 -0.08,-0.03l-0.23 0c-0.11,0 -0.18,0.09 -0.18,0.21 0,0.09 0.06,0.1 0.07,0.15 -0.05,0 -0.07,0.02 -0.13,0.02l-0.11 0c-0.31,0 -0.64,-0.32 -0.64,-0.66zm1.66 0.04l-0.14 0c0,-0.04 0.01,-0.04 0.01,-0.08l0 -0.39c0.29,0 0.24,-0.05 0.24,0.39 0,0.06 -0.05,0.08 -0.11,0.08zm-2.04 -0.08l0 -0.32c0,-0.09 0.16,-0.06 0.24,-0.06l0 0.39c0,0.05 0.01,0.04 0.01,0.08 -0.1,0 -0.25,0.02 -0.25,-0.08zm0.08 -0.53c0.01,-0.02 0.01,-0.07 0.02,-0.1 0.01,-0.08 0.06,-0.2 0.09,-0.27 0.08,-0.15 0.2,-0.28 0.34,-0.37 0.38,-0.26 0.92,-0.21 1.23,0.1 0.32,0.33 0.28,0.56 0.32,0.63 -0.22,0 -0.21,0.04 -0.39,-0.14 -0.16,-0.16 -0.09,-0.31 -0.25,-0.31 -0.09,0 -0.11,0.18 -0.35,0.32 -0.16,0.09 -0.34,0.13 -0.55,0.13 -0.15,-0 -0.3,0 -0.45,0z"/>
 </g>
</svg>
