<?xml version="1.0" encoding="UTF-8"?>
<!DOCTYPE svg PUBLIC "-//W3C//DTD SVG 1.1//EN" "http://www.w3.org/Graphics/SVG/1.1/DTD/svg11.dtd">
<!-- Creator: CorelDRAW 2018 (64 Bit) -->
<svg xmlns="http://www.w3.org/2000/svg" xml:space="preserve" width="31.75mm" height="31.75mm" version="1.1" style="shape-rendering:geometricPrecision; text-rendering:geometricPrecision; image-rendering:optimizeQuality; fill-rule:evenodd; clip-rule:evenodd"
viewBox="0 0 59.99 59.99"
 xmlns:xlink="http://www.w3.org/1999/xlink">
 <defs>
  <style type="text/css">
   <![CDATA[
    .fil1 {fill:white}
    .fil0 {fill:url(#id0)}
   ]]>
  </style>
  <linearGradient id="id0" gradientUnits="userSpaceOnUse" x1="30" y1="-0.35" x2="30" y2="60.34">
   <stop offset="0" style="stop-opacity:1; stop-color:#68DAE0"/>
   <stop offset="1" style="stop-opacity:1; stop-color:#2071FF"/>
  </linearGradient>
 </defs>
 <g id="Camada_x0020_1">
  <metadata id="CorelCorpID_0Corel-Layer"/>
  <g id="_1792840052016">
   <circle class="fil0" cx="30" cy="30" r="30"/>
   <g>
    <path class="fil1" d="M39.41 27.36l2.64 0 0 14.69 -2.64 0 0 -14.69zm-11.42 10.04l4.02 0 0 4.64 -4.02 0 0 -4.64zm-10.04 -10.04l2.64 0 0 14.69 -2.64 0 0 -14.69zm8.66 9.48l0 5.21 -4.64 0 0 -21.4 2.64 0 0 4.39c0,1.52 0.91,2.32 2.32,2.32 1.17,0 6.42,0.13 7.13,-0.15 0.94,-0.37 1.34,-1.17 1.34,-2.17l0 -4.39 2.64 0 0 21.4 -4.64 0 0 -5.21c0,-0.41 -0.22,-0.82 -0.63,-0.82l-5.52 0c-0.41,0 -0.63,0.4 -0.63,0.82zm-0.63 -11.67l0 -6.4c0,-0.54 0.28,-0.82 0.82,-0.82l6.4 0c0.54,0 0.82,0.28 0.82,0.82l0 6.4c0,0.54 -0.28,0.82 -0.82,0.82l-6.4 0c-0.54,0 -0.82,-0.28 -0.82,-0.82zm-1.38 -6.28l0 0.38 -3.33 0c-0.48,0 -0.69,0.45 -0.69,0.94l0 5.77 -3.39 0c-0.41,0 -0.63,0.4 -0.63,0.82l0 15.75c0,0.55 0.33,0.88 0.88,0.88l25.1 0c0.55,0 0.88,-0.33 0.88,-0.88l0 -15.75c0,-0.41 -0.22,-0.82 -0.63,-0.82l-3.39 0 0 -5.77c0,-0.26 -0.04,-0.49 -0.16,-0.65 -0.11,-0.14 -0.31,-0.29 -0.53,-0.29l-3.33 0c0,-1.49 -0.41,-2.7 -2.32,-2.7l-6.15 0c-1.47,0 -2.32,0.85 -2.32,2.32z"/>
    <path class="fil1" d="M29.31 19.96l0 1.32c-0.82,0 -2.01,-0.2 -2.01,0.69 0,0.89 1.18,0.69 2.01,0.69 0,0.82 -0.2,2.01 0.69,2.01 0.89,0 0.69,-1.18 0.69,-2.01 0.82,0 2.01,0.2 2.01,-0.69 0,-0.89 -1.18,-0.69 -2.01,-0.69 0,-0.82 0.2,-2.01 -0.69,-2.01 -0.37,0 -0.69,0.32 -0.69,0.69z"/>
    <path class="fil1" d="M25.29 30.69c0.87,0 2.05,0.21 2.05,-0.69 0,-0.9 -1.17,-0.69 -2.05,-0.69 -0.87,0 -0.87,1.38 0,1.38z"/>
    <path class="fil1" d="M29.31 30.69c0.87,0 2.05,0.21 2.05,-0.69 0,-0.9 -1.17,-0.69 -2.05,-0.69 -0.87,0 -0.87,1.38 0,1.38z"/>
    <path class="fil1" d="M33.32 30.69c0.87,0 2.05,0.21 2.05,-0.69 0,-0.9 -1.17,-0.69 -2.05,-0.69 -0.87,0 -0.87,1.38 0,1.38z"/>
    <path class="fil1" d="M33.26 34.01l1.51 0c0.77,0 0.9,-1.38 -0.25,-1.38l-1 0c-1.15,0 -1.02,1.38 -0.25,1.38z"/>
    <path class="fil1" d="M25.23 34.01l1.51 0c0.77,0 0.9,-1.38 -0.25,-1.38l-1 0c-1.15,0 -1.02,1.38 -0.25,1.38z"/>
    <path class="fil1" d="M29.24 34.01l1.51 0c0.77,0 0.9,-1.38 -0.25,-1.38l-1 0c-1.15,0 -1.02,1.38 -0.25,1.38z"/>
   </g>
  </g>
 </g>
</svg>
